material SkyBox
{
    technique
    {
        pass
        {
            lighting off
            depth_write off
            texture_unit
            {
                cubic_texture SkyBox.jpg separateUV
                tex_address_mode clamp
            }
        }
    }
}
