// Material.005 genrated by blender2ogre 0.6.0

material Material.005 
{
    receive_shadows on 

    technique
    {
        pass Material.005
        {
            ambient 0.09084172546863556 0.09305896610021591 0.10461650043725967 1.0
            diffuse 0.005737374072714019 0.0058774103704282155 0.0066073601540521665 1.0
            specular 0.04542086273431778 0.046529483050107956 0.05230825021862984 1.0 3.75
            emissive 0.0 0.0 0.0 1.0

            alpha_to_coverage off
            colour_write on
            cull_hardware clockwise
            depth_check on
            depth_func less_equal
            depth_write on
            illumination_stage 
            light_clip_planes off
            light_scissor off
            lighting on
            normalise_normals off
            polygon_mode solid
            scene_blend one zero
            scene_blend_op add
            shading gouraud
            transparent_sorting on

        }
    }
}
