// Material.003 genrated by blender2ogre 0.6.0

material Material.003 
{
    receive_shadows on 

    technique
    {
        pass Material.003
        {
            ambient 0.09989874064922333 0.038204375654459 0.024157628417015076 1.0
            diffuse 0.09779561252640079 0.03740007425554648 0.023649047554290092 1.0
            specular 0.9210526347160339 0.9210526347160339 0.9210526347160339 1.0 7.0
            emissive 0.0 0.0 0.0 1.0

            alpha_to_coverage off
            colour_write on
            cull_hardware clockwise
            depth_check on
            depth_func less_equal
            depth_write on
            illumination_stage 
            light_clip_planes off
            light_scissor off
            lighting on
            normalise_normals off
            polygon_mode solid
            scene_blend one zero
            scene_blend_op add
            shading gouraud
            transparent_sorting on

        }
    }
}
