// PlateMaterial genrated by blender2ogre 0.6.0

material PlateMaterial 
{
    receive_shadows on 

    technique
    {
        pass PlateMaterial
        {
            ambient 1.0 1.0 1.0 1.0
            diffuse 0.8999999761581421 0.8999999761581421 0.8999999761581421 1.0
            specular 0.5 0.5 0.5 1.0 12.5
            emissive 0.10000000149011612 0.10000000149011612 0.10000000149011612 1.0

            alpha_to_coverage off
            colour_write on
            cull_hardware clockwise
            depth_check on
            depth_func less_equal
            depth_write on
            illumination_stage 
            light_clip_planes off
            light_scissor off
            lighting on
            normalise_normals off
            polygon_mode solid
            scene_blend one zero
            scene_blend_op add
            shading gouraud
            transparent_sorting on

            texture_unit 
            {
                texture color-rojo.png
                tex_address_mode wrap
                scale 1.0 1.0
                colour_op modulate
            }
        }
    }
}
